%YAML 1.1
%TAG !u! tag:unity3d.com,2011:
--- !u!1001 &4969414282342372887
PrefabInstance:
  m_ObjectHideFlags: 0
  serializedVersion: 2
  m_Modification:
    m_TransformParent: {fileID: 0}
    m_Modifications:
    - target: {fileID: 3478299983226874746, guid: e3e1f65a50caf6572801bbc89c3be10d, type: 3}
      propertyPath: m_Name
      value: RockCeiling
      objectReference: {fileID: 0}
    - target: {fileID: 3478299983226874750, guid: e3e1f65a50caf6572801bbc89c3be10d, type: 3}
      propertyPath: m_RootOrder
      value: 0
      objectReference: {fileID: 0}
    - target: {fileID: 3478299983226874750, guid: e3e1f65a50caf6572801bbc89c3be10d, type: 3}
      propertyPath: m_LocalScale.x
      value: 2
      objectReference: {fileID: 0}
    - target: {fileID: 3478299983226874750, guid: e3e1f65a50caf6572801bbc89c3be10d, type: 3}
      propertyPath: m_LocalScale.y
      value: -2
      objectReference: {fileID: 0}
    - target: {fileID: 3478299983226874750, guid: e3e1f65a50caf6572801bbc89c3be10d, type: 3}
      propertyPath: m_LocalPosition.x
      value: 10
      objectReference: {fileID: 0}
    - target: {fileID: 3478299983226874750, guid: e3e1f65a50caf6572801bbc89c3be10d, type: 3}
      propertyPath: m_LocalPosition.y
      value: 3
      objectReference: {fileID: 0}
    - target: {fileID: 3478299983226874750, guid: e3e1f65a50caf6572801bbc89c3be10d, type: 3}
      propertyPath: m_LocalPosition.z
      value: 0
      objectReference: {fileID: 0}
    - target: {fileID: 3478299983226874750, guid: e3e1f65a50caf6572801bbc89c3be10d, type: 3}
      propertyPath: m_LocalRotation.w
      value: 1
      objectReference: {fileID: 0}
    - target: {fileID: 3478299983226874750, guid: e3e1f65a50caf6572801bbc89c3be10d, type: 3}
      propertyPath: m_LocalRotation.x
      value: 0
      objectReference: {fileID: 0}
    - target: {fileID: 3478299983226874750, guid: e3e1f65a50caf6572801bbc89c3be10d, type: 3}
      propertyPath: m_LocalRotation.y
      value: 0
      objectReference: {fileID: 0}
    - target: {fileID: 3478299983226874750, guid: e3e1f65a50caf6572801bbc89c3be10d, type: 3}
      propertyPath: m_LocalRotation.z
      value: 0
      objectReference: {fileID: 0}
    - target: {fileID: 3478299983226874750, guid: e3e1f65a50caf6572801bbc89c3be10d, type: 3}
      propertyPath: m_LocalEulerAnglesHint.x
      value: 0
      objectReference: {fileID: 0}
    - target: {fileID: 3478299983226874750, guid: e3e1f65a50caf6572801bbc89c3be10d, type: 3}
      propertyPath: m_LocalEulerAnglesHint.y
      value: 0
      objectReference: {fileID: 0}
    - target: {fileID: 3478299983226874750, guid: e3e1f65a50caf6572801bbc89c3be10d, type: 3}
      propertyPath: m_LocalEulerAnglesHint.z
      value: 0
      objectReference: {fileID: 0}
    - target: {fileID: 3478299983226874751, guid: e3e1f65a50caf6572801bbc89c3be10d, type: 3}
      propertyPath: m_FlipY
      value: 0
      objectReference: {fileID: 0}
    m_RemovedComponents: []
  m_SourcePrefab: {fileID: 100100000, guid: e3e1f65a50caf6572801bbc89c3be10d, type: 3}
--- !u!1 &8409206294232776045 stripped
GameObject:
  m_CorrespondingSourceObject: {fileID: 3478299983226874746, guid: e3e1f65a50caf6572801bbc89c3be10d, type: 3}
  m_PrefabInstance: {fileID: 4969414282342372887}
  m_PrefabAsset: {fileID: 0}
--- !u!60 &4322594815113789898
PolygonCollider2D:
  m_ObjectHideFlags: 0
  m_CorrespondingSourceObject: {fileID: 0}
  m_PrefabInstance: {fileID: 0}
  m_PrefabAsset: {fileID: 0}
  m_GameObject: {fileID: 8409206294232776045}
  m_Enabled: 1
  m_Density: 1
  m_Material: {fileID: 0}
  m_IsTrigger: 0
  m_UsedByEffector: 0
  m_UsedByComposite: 0
  m_Offset: {x: 0, y: 0}
  m_SpriteTilingProperty:
    border: {x: 0, y: 0, z: 0, w: 0}
    pivot: {x: 0.5, y: 0.5}
    oldSize: {x: 1.08, y: 2.39}
    newSize: {x: 1.08, y: 2.39}
    adaptiveTilingThreshold: 0.5
    drawMode: 0
    adaptiveTiling: 0
  m_AutoTiling: 0
  m_Points:
    m_Paths:
    - - {x: 0.48999998, y: -0.565}
      - {x: 0.42999998, y: -0.49499997}
      - {x: 0.38, y: -0.065}
      - {x: 0.37, y: 0.015}
      - {x: 0.35999998, y: 0.175}
      - {x: 0.29999998, y: 0.195}
      - {x: 0.25, y: 0.615}
      - {x: 0.19, y: 1.145}
      - {x: 0.17999999, y: 1.185}
      - {x: 0.17, y: 1.1949999}
      - {x: 0.06, y: 1.1949999}
      - {x: 0.049999997, y: 1.165}
      - {x: 0.01, y: 0.97499996}
      - {x: -0.049999997, y: 0.675}
      - {x: -0.07, y: 0.585}
      - {x: -0.099999994, y: 0.435}
      - {x: -0.14999999, y: 0.24499999}
      - {x: -0.16, y: 0.145}
      - {x: -0.19, y: -0.015}
      - {x: -0.26999998, y: -0.085}
      - {x: -0.28, y: -0.114999995}
      - {x: -0.41, y: -0.59499997}
      - {x: -0.42999998, y: -0.705}
      - {x: -0.45999998, y: -0.78499997}
      - {x: -0.52, y: -1.005}
      - {x: -0.53999996, y: -1.055}
      - {x: -0.53999996, y: -1.1949999}
      - {x: 0.53999996, y: -1.1949999}
      - {x: 0.53999996, y: -0.995}
      - {x: 0.51, y: -0.765}
