%YAML 1.1
%TAG !u! tag:unity3d.com,2011:
--- !u!1001 &8136804576269710037
PrefabInstance:
  m_ObjectHideFlags: 0
  serializedVersion: 2
  m_Modification:
    m_TransformParent: {fileID: 0}
    m_Modifications:
    - target: {fileID: 8409206294232776040, guid: 78ef544d386a7ea4082f879c0dd3ece3, type: 3}
      propertyPath: m_Sprite
      value: 
      objectReference: {fileID: 21300000, guid: f30fe9482018c5d42a05e479402b2a84, type: 3}
    - target: {fileID: 8409206294232776041, guid: 78ef544d386a7ea4082f879c0dd3ece3, type: 3}
      propertyPath: m_RootOrder
      value: 0
      objectReference: {fileID: 0}
    - target: {fileID: 8409206294232776041, guid: 78ef544d386a7ea4082f879c0dd3ece3, type: 3}
      propertyPath: m_LocalPosition.x
      value: 10
      objectReference: {fileID: 0}
    - target: {fileID: 8409206294232776041, guid: 78ef544d386a7ea4082f879c0dd3ece3, type: 3}
      propertyPath: m_LocalPosition.y
      value: 3
      objectReference: {fileID: 0}
    - target: {fileID: 8409206294232776041, guid: 78ef544d386a7ea4082f879c0dd3ece3, type: 3}
      propertyPath: m_LocalPosition.z
      value: 0
      objectReference: {fileID: 0}
    - target: {fileID: 8409206294232776041, guid: 78ef544d386a7ea4082f879c0dd3ece3, type: 3}
      propertyPath: m_LocalRotation.w
      value: 1
      objectReference: {fileID: 0}
    - target: {fileID: 8409206294232776041, guid: 78ef544d386a7ea4082f879c0dd3ece3, type: 3}
      propertyPath: m_LocalRotation.x
      value: 0
      objectReference: {fileID: 0}
    - target: {fileID: 8409206294232776041, guid: 78ef544d386a7ea4082f879c0dd3ece3, type: 3}
      propertyPath: m_LocalRotation.y
      value: 0
      objectReference: {fileID: 0}
    - target: {fileID: 8409206294232776041, guid: 78ef544d386a7ea4082f879c0dd3ece3, type: 3}
      propertyPath: m_LocalRotation.z
      value: 0
      objectReference: {fileID: 0}
    - target: {fileID: 8409206294232776041, guid: 78ef544d386a7ea4082f879c0dd3ece3, type: 3}
      propertyPath: m_LocalEulerAnglesHint.x
      value: 0
      objectReference: {fileID: 0}
    - target: {fileID: 8409206294232776041, guid: 78ef544d386a7ea4082f879c0dd3ece3, type: 3}
      propertyPath: m_LocalEulerAnglesHint.y
      value: 0
      objectReference: {fileID: 0}
    - target: {fileID: 8409206294232776041, guid: 78ef544d386a7ea4082f879c0dd3ece3, type: 3}
      propertyPath: m_LocalEulerAnglesHint.z
      value: 0
      objectReference: {fileID: 0}
    - target: {fileID: 8409206294232776045, guid: 78ef544d386a7ea4082f879c0dd3ece3, type: 3}
      propertyPath: m_Name
      value: RockCeilingIce
      objectReference: {fileID: 0}
    m_RemovedComponents: []
  m_SourcePrefab: {fileID: 100100000, guid: 78ef544d386a7ea4082f879c0dd3ece3, type: 3}
