%YAML 1.1
%TAG !u! tag:unity3d.com,2011:
--- !u!1045 &1
EditorBuildSettings:
  m_ObjectHideFlags: 0
  serializedVersion: 2
  m_Scenes:
  - enabled: 1
    path: Assets/StartScreen/StartScreen.unity
    guid: dd1e147b84d72c09fb1ad34f226456b8
  - enabled: 1
    path: Assets/A1/AnimalDisco.unity
    guid: 0fa0e151444a5c90b96d52b5a2f86a52
  - enabled: 1
    path: Assets/A2/TextAdventureStartScreen.unity
    guid: 6ee0c76c0c217c810b83855abd4db330
  - enabled: 1
    path: Assets/A2/TextAdventure.unity
    guid: 0724c3f16c249879587cee59fc10db47
  - enabled: 1
    path: Assets/A3/TappyPlane.unity
    guid: 2cda990e2423bbf4892e6590ba056729
  - enabled: 1
    path: Assets/A4/IdleGame.unity
    guid: 7ec21185d729860c18436b1305346a32
  m_configObjects: {}
