%YAML 1.1
%TAG !u! tag:unity3d.com,2011:
--- !u!1001 &4171106699441736859
PrefabInstance:
  m_ObjectHideFlags: 0
  serializedVersion: 2
  m_Modification:
    m_TransformParent: {fileID: 0}
    m_Modifications:
    - target: {fileID: 5521222210912483842, guid: f87f622b60e860f93906f6112fdf189f, type: 3}
      propertyPath: m_Name
      value: DiscoLightSmall
      objectReference: {fileID: 0}
    - target: {fileID: 5521222210912483843, guid: f87f622b60e860f93906f6112fdf189f, type: 3}
      propertyPath: m_RootOrder
      value: 0
      objectReference: {fileID: 0}
    - target: {fileID: 5521222210912483843, guid: f87f622b60e860f93906f6112fdf189f, type: 3}
      propertyPath: m_LocalScale.x
      value: 0.6
      objectReference: {fileID: 0}
    - target: {fileID: 5521222210912483843, guid: f87f622b60e860f93906f6112fdf189f, type: 3}
      propertyPath: m_LocalScale.y
      value: 0.6
      objectReference: {fileID: 0}
    - target: {fileID: 5521222210912483843, guid: f87f622b60e860f93906f6112fdf189f, type: 3}
      propertyPath: m_LocalScale.z
      value: 0.6
      objectReference: {fileID: 0}
    - target: {fileID: 5521222210912483843, guid: f87f622b60e860f93906f6112fdf189f, type: 3}
      propertyPath: m_LocalPosition.x
      value: 0
      objectReference: {fileID: 0}
    - target: {fileID: 5521222210912483843, guid: f87f622b60e860f93906f6112fdf189f, type: 3}
      propertyPath: m_LocalPosition.y
      value: 0
      objectReference: {fileID: 0}
    - target: {fileID: 5521222210912483843, guid: f87f622b60e860f93906f6112fdf189f, type: 3}
      propertyPath: m_LocalPosition.z
      value: 10
      objectReference: {fileID: 0}
    - target: {fileID: 5521222210912483843, guid: f87f622b60e860f93906f6112fdf189f, type: 3}
      propertyPath: m_LocalRotation.w
      value: 1
      objectReference: {fileID: 0}
    - target: {fileID: 5521222210912483843, guid: f87f622b60e860f93906f6112fdf189f, type: 3}
      propertyPath: m_LocalRotation.x
      value: 0
      objectReference: {fileID: 0}
    - target: {fileID: 5521222210912483843, guid: f87f622b60e860f93906f6112fdf189f, type: 3}
      propertyPath: m_LocalRotation.y
      value: 0
      objectReference: {fileID: 0}
    - target: {fileID: 5521222210912483843, guid: f87f622b60e860f93906f6112fdf189f, type: 3}
      propertyPath: m_LocalRotation.z
      value: 0
      objectReference: {fileID: 0}
    - target: {fileID: 5521222210912483843, guid: f87f622b60e860f93906f6112fdf189f, type: 3}
      propertyPath: m_LocalEulerAnglesHint.x
      value: 0
      objectReference: {fileID: 0}
    - target: {fileID: 5521222210912483843, guid: f87f622b60e860f93906f6112fdf189f, type: 3}
      propertyPath: m_LocalEulerAnglesHint.y
      value: 0
      objectReference: {fileID: 0}
    - target: {fileID: 5521222210912483843, guid: f87f622b60e860f93906f6112fdf189f, type: 3}
      propertyPath: m_LocalEulerAnglesHint.z
      value: 0
      objectReference: {fileID: 0}
    m_RemovedComponents: []
  m_SourcePrefab: {fileID: 100100000, guid: f87f622b60e860f93906f6112fdf189f, type: 3}
